Davide Gentile - Penguin
…
create factors for character variables (needed for MANOVA), and

remove NA observations (causes problems with PCA)

peng <- penguins %>%
    dplyr::rename(
         bill_length = bill_length_mm, 
         bill_depth = bill_depth_mm, 
         flipper_length = flipper_length_mm, 
         body_mass = body_mass_g)
peng <- peng %>% drop_na()
peng

# A tibble: 333 × 8
   species island    bill_length bill_depth flipper_length body_mass sex    year
   <fct>   <fct>           <dbl>      <dbl>          <int>     <int> <fct> <int>
 1 Adelie  Torgersen        39.1       18.7            181      3750 male   2007
 2 Adelie  Torgersen        39.5       17.4            186      3800 fema…  2007
 3 Adelie  Torgersen        40.3       18              195      3250 fema…  2007
 4 Adelie  Torgersen        36.7       19.3            193      3450 fema…  2007
 5 Adelie  Torgersen        39.3       20.6            190      3650 male   2007
 6 Adelie  Torgersen        38.9       17.8            181      3625 fema…  2007
 7 Adelie  Torgersen        39.2       19.6            195      4675 male   2007
 8 Adelie  Torgersen        41.1       17.6            182      3200 fema…  2007
 9 Adelie  Torgersen        38.6       21.2            191      3800 male   2007
10 Adelie  Torgersen        34.6       21.1            198      4400 male   2007
# ℹ 323 more rows
…
